8.5.3.179.32.....41.67.......35...1..572......19..35473..42978.5.41..2....8357461
8.2.56.9....18...3416..32..679.4.8..5..7.814..843..576.6....9.....61738....295.17
4.5.1.2....6...58131.7.5469572...316.4..7...2.8926..45...9.6...26418....95...2..8
2...3.74..3.....1.1947.538664.58..23725.93.6....46.17..7.2.46....2.1.4......7.258
3258.7....814...277.4..1.6.5..614...2...39..1417.8..3..53.7...69421......7.243.15
3.....9.....4..256....6913.8....4.12..31..7.4.1..576836.53.18.97.859.....926.8375
8..2...9..1.495...9..3.821..95.3..2.7.8..6.4..4.18.579.81.4793.4...2.86..3.8..457
893....4...794...8..2...5.......4.324..32..51.2.1679845.6.12....14..32652..7564.3
36......8.87.1....2548.9...87693.5.2.2318.7..4.9.576...4..7.829.385....1.92....75
85.3.2.16.1.85.37..3....2.55.84..1..4..731..8.7..8.9423...6.7946.......1.8.2145.3
3..48.7.27.492.8.11285..3.92156.8...47..5.....9......5..2.16..86..345..7.3..92.14
172.54..6.6.19.2....9..6.819146.2853..7.8..2.8......6938.2.1.....6.3...879..486.2
1....9.7..3471...66.7.8.4157..9...8.3.9...7.4..1476.5.5732...41.681.7..99.2..4..7
8.1...7927....4.1.5..18.6.428..713.9........8413...26.17.543.8.3.89..4.196.7...23
3..7259.898...3.5..54.....7..6.3.5.25...8679..........6.5371.297...9.46119264..75
238.6.91..15.936...968..23.97..4.1....413.8578..7.64..58...2...1......8.3.9..5721
312....476579...82.9..7.....46.913...3..8627.7895..41.47..19....236.....9.12.7..4
2.18395...6.2..8.3.....47..342..76.8...423..1.17.8..3.12.758.6...6.4.1.55.4...327
3.27.41855....3...4.71852...59462..1.4......9.73...46893..........35694.6249.1..3
6728.1....957...8....9526...1.697....26.1....749.2.136.6...9543..8.7..62.5.2..817
9875..4.346..7..1..1.3.6....4176.2......3519.59.21...6...65784..741.2.3.6.9....21
675...213.2....9.41...3...8..1.57...4..29....53..84129.1452....95.8.6.4176.4.98.2
3.472...6..5....787....1.2341...35.2.62.15.979.3.72.1..3......56..25.7315...3.269
95...16.4.27394.1.84125.9..36.5..2...95.3.....7.....5.4.9...76..3.4.91..78..65493
19.....6.85.....3..63.52..1.897.3...6342.8.1..7...53.83.5847.29.4..2...39..136.57
14..2...3..64....75..869...38519..6..1.2..3.8.6.38..917..9...3.49267381....548..9
9.713.8..6.1.8...38....2691.64.59...2...1437...9.2.5.4....6.2.8.8....437712.43.56
97286...16.8.45.234.3.9.6.7549..87.6.2...7.59.36459.1..9...6....84.....5.....48.2
8.2.....319..4..524.3.251..2786..5916....9.2..3.5.2...786.9..35....587.95.9..78.4
19.67.48.4..358.7.78....62.5.829...467..3.298.....73..82...153..4.5...6.35..6..42
3458.1.69279.5..84.6..29..7.....6...4..7.8....83.9..4173826.915.16...428.......73
13.6....57...1.6.99.4...1..54.8.72..27....8.4.9.4....7.1937..5232..5..684..962371
78.9.46..9....3.8.63.578.4.8..69.715..938...6..........687.9.5.3.72158..5.2.469.3
2948.35.7....2....8.3751.9.15..4.86.4.9....5.638..2.7.....3..25.2167....34.295.86
3...6...11..4..785...821.46.....8..48473.265.9.2.4.8....1.7...8.952.6..76..153492
1597.38.2.76.8.43..48.127..6..97.31...7.35.8.5..1....74.5..1...8......23.9.3.6148
7..128.59..45.78...5.9.4.7.4..29.36.27.6...9.6.9..1.4.3..8.6.151.63.97..5....26.3
1738.....29...61..4..2..978....28..9.4.16.732........1.8.6..3.793451..86.6.382495
947.3...6.3.8...17.1.7.6453.6...7249.94..23.1.723.9..8..6.7.1....92...3.42..63..5
87.9.1....24.5...89512.8..65....423.26.13758.437.8.......47516...53168..1.......3
8469.375.3.5.4.8.6.72.5893..5..89....831.52..6.1....892.....6..41......556.32..98
172...6599...27.3...35.....8..35.19.53.9612....978.36........76...1769.27.6..5813
7.2...1..4....98.7.6...4.526.58.3.1.37..4268.148.....928493.5...3.68.4.1..6.27..8
67..1.4.9....79.3.98.6..5..4.95.37.23.7.2891.....91.645..987.43.341.....7.....158
79..6.1434......67.61...9.2.2...3...3..14268....7.6...2..93157693.68...151..27.98
162......5341296..7.9.....1475...98.9...8..4..28....353...782.92.1.358.78.72.1..4
